…
4. Refocus the data only to include country, isscaap_taxonomic_group, asfis_species_name, asfis_species_number, year, catch.

```r
fisheries_focus<-fisheries_tidy%>%
  select(country,isscaap_taxonomic_group, asfis_species_name,asfis_species_number, year, catch)
fisheries_focus
```

```
## # A tibble: 376,771 x 6
##    country isscaap_taxonomic_group asfis_species_n~ asfis_species_n~  year catch
##    <chr>   <chr>                   <chr>            <chr>            <dbl> <dbl>
##  1 Albania Sharks, rays, chimaeras Squatinidae      10903XXXXX        1995    NA
##  2 Albania Sharks, rays, chimaeras Squatinidae      10903XXXXX        1996    53
##  3 Albania Sharks, rays, chimaeras Squatinidae      10903XXXXX        1997    20
##  4 Albania Sharks, rays, chimaeras Squatinidae      10903XXXXX        1998    31
##  5 Albania Sharks, rays, chimaeras Squatinidae      10903XXXXX        1999    30
##  6 Albania Sharks, rays, chimaeras Squatinidae      10903XXXXX        2000    30
##  7 Albania Sharks, rays, chimaeras Squatinidae      10903XXXXX        2001    16
##  8 Albania Sharks, rays, chimaeras Squatinidae      10903XXXXX        2002    79
##  9 Albania Sharks, rays, chimaeras Squatinidae      10903XXXXX        2003     1
## 10 Albania Sharks, rays, chimaeras Squatinidae      10903XXXXX        2004     4
## # ... with 376,761 more rows
```
…
6. Which country had the largest overall catch in the year 2000?

```r
fisheries_tidy %>%
  select(country,catch,year) %>%
  filter(year ==2000) %>%
  arrange(desc(catch))
```

```
## # A tibble: 8,793 x 3
##    country                  catch  year
##    <chr>                    <dbl> <dbl>
##  1 China                     9068  2000
##  2 Peru                      5717  2000
##  3 Russian Federation        5065  2000
##  4 Viet Nam                  4945  2000
##  5 Chile                     4299  2000
##  6 China                     3288  2000
##  7 China                     2782  2000
##  8 United States of America  2438  2000
##  9 China                     1234  2000
## 10 Philippines                999  2000
## # ... with 8,783 more rows
```

7. Which country caught the most sardines (_Sardina pilchardus_) between the years 1990-2000?

```r
fisheries_tidy %>%
  select(country,catch,year, asfis_species_name) %>%
  filter(between(year,1990,2000)) %>%
  filter(asfis_species_name =="Sardina pilchardus") %>%
  arrange(desc(catch))
```

```
## # A tibble: 336 x 4
##    country            catch  year asfis_species_name
##    <chr>              <dbl> <dbl> <chr>             
##  1 Morocco              947  1994 Sardina pilchardus
##  2 Morocco              925  1996 Sardina pilchardus
##  3 Spain                912  1996 Sardina pilchardus
##  4 Morocco              859  2000 Sardina pilchardus
##  5 Morocco              845  1990 Sardina pilchardus
##  6 Morocco              827  1991 Sardina pilchardus
##  7 Morocco              723  1998 Sardina pilchardus
##  8 Morocco              710  1993 Sardina pilchardus
##  9 Russian Federation   627  1992 Sardina pilchardus
## 10 Russian Federation   579  1991 Sardina pilchardus
## # ... with 326 more rows
```

8. Which five countries caught the most cephalopods between 2008-2012?

```r
fisheries_tidy %>%
  select(country,catch,year, asfis_species_name) %>%
  filter(between(year,2008,2012)) %>%
  filter(asfis_species_name =="Cephalopoda") %>%
  arrange(desc(catch))
```

```
## # A tibble: 80 x 4
##    country catch  year asfis_species_name
##    <chr>   <dbl> <dbl> <chr>             
##  1 India      94  2011 Cephalopoda       
##  2 India      93  2010 Cephalopoda       
##  3 India      88  2012 Cephalopoda       
##  4 China      86  2008 Cephalopoda       
##  5 China      74  2010 Cephalopoda       
##  6 Italy      66  2012 Cephalopoda       
##  7 India      62  2009 Cephalopoda       
##  8 India      61  2009 Cephalopoda       
##  9 India      60  2010 Cephalopoda       
## 10 Spain      57  2008 Cephalopoda       
## # ... with 70 more rows
```



9. Which species had the highest catch total between 2008-2012? (hint: Osteichthyes is not a species)

```r
fisheries_tidy %>%
  select(catch,year, asfis_species_name) %>%
  filter(between(year,2008,2012)) %>%
  arrange(desc(catch))
```

```
## # A tibble: 51,014 x 3
##    catch  year asfis_species_name   
##    <dbl> <dbl> <chr>                
##  1  9806  2010 Osteichthyes         
##  2  9613  2012 Osteichthyes         
##  3  8898  2009 Osteichthyes         
##  4  8221  2011 Trichiurus lepturus  
##  5  8188  2012 Theragra chalcogramma
##  6  7981  2008 Engraulis ringens    
##  7  7873  2008 Clupea harengus      
##  8  7250  2009 Clupea harengus      
##  9  6880  2012 Engraulis ringens    
## 10  6841  2010 Trichiurus lepturus  
## # ... with 51,004 more rows
```
…
