…
12. (4 points) Based on your interest, do one exploratory analysis on the `gabon` data of your choice. This analysis needs to include a minimum of two functions in `dplyr.`

```r
land_use_diversity<-defaunation %>% 
  group_by(land_use) %>%
  select(land_use,contains("ra"))
land_use_diversity
```

```
## # A tibble: 24 x 8
## # Groups:   land_use [3]
##    land_use transect_id ra_apes ra_birds ra_elephant ra_monkeys ra_rodent
##    <chr>          <dbl>   <dbl>    <dbl>       <dbl>      <dbl>     <dbl>
##  1 Park               1    1.87     52.7        0         38.6       4.22
##  2 Park               2    0        52.2        0.86      28.5       6.04
##  3 Park               2    4.49     37.4        1.33      41.8       1.06
##  4 Logging            3   12.9      59.3        0.56      19.8       3.66
##  5 Park               4    0        52.6        1         41.3       2.52
##  6 Park               5    2.48     38.6        0         43.3       1.83
##  7 Park               6    3.78     42.7        1.11      46.2       3.1 
##  8 Logging            7    6.17     33.8        0.43      49.5       1.26
##  9 Neither            8    0        73.1        2.2       20.0       4.37
## 10 Logging            9    0        85.0        0          5.84      6.31
## # ... with 14 more rows, and 1 more variable: ra_ungulate <dbl>
```
…
