…
```r
ipp_t2<-ipp_t1 %>%
pivot_longer(-country, names_to = "year", values_to = "income", values_drop_na = T)
ipp_t2
```

```
## # A tibble: 46,513 x 3
##    country     year  income
##    <chr>       <chr>  <int>
##  1 Afghanistan 1800     603
##  2 Afghanistan 1801     603
##  3 Afghanistan 1802     603
##  4 Afghanistan 1803     603
##  5 Afghanistan 1804     603
##  6 Afghanistan 1805     603
##  7 Afghanistan 1806     603
##  8 Afghanistan 1807     603
##  9 Afghanistan 1808     603
## 10 Afghanistan 1809     603
## # ... with 46,503 more rows
```
…
```r
le_t2 <- le_t1 %>%
pivot_longer(-country, names_to = "year", values_to = "avg_life_expectancy", values_drop_na = T) 
le_t2
```

```
## # A tibble: 55,528 x 3
##    country     year  avg_life_expectancy
##    <chr>       <chr>               <dbl>
##  1 Afghanistan 1800                 28.2
##  2 Afghanistan 1801                 28.2
##  3 Afghanistan 1802                 28.2
##  4 Afghanistan 1803                 28.2
##  5 Afghanistan 1804                 28.2
##  6 Afghanistan 1805                 28.2
##  7 Afghanistan 1806                 28.1
##  8 Afghanistan 1807                 28.1
##  9 Afghanistan 1808                 28.1
## 10 Afghanistan 1809                 28.1
## # ... with 55,518 more rows
```
…
```r
poptol_t2 <-poptol_t1 %>%
  pivot_longer(-country, names_to = "year", values_to = "total_population", values_drop_na = T)
poptol_t2
```

```
## # A tibble: 58,695 x 3
##    country     year  total_population
##    <chr>       <chr>            <int>
##  1 Afghanistan 1800           3280000
##  2 Afghanistan 1801           3280000
##  3 Afghanistan 1802           3280000
##  4 Afghanistan 1803           3280000
##  5 Afghanistan 1804           3280000
##  6 Afghanistan 1805           3280000
##  7 Afghanistan 1806           3280000
##  8 Afghanistan 1807           3280000
##  9 Afghanistan 1808           3280000
## 10 Afghanistan 1809           3280000
## # ... with 58,685 more rows
```
…
3. (2 points) Let's limit the data to 100 years (1920-2020). For these years, which country has the highest average life expectancy? How about the lowest average life expectancy?


```r
le_century<-le_t2 %>%
  filter(year>="1920" & year<="2020") %>%
  arrange(avg_life_expectancy) 
  le_century
```

```
## # A tibble: 18,728 x 3
##    country         year  avg_life_expectancy
##    <chr>           <chr>               <dbl>
##  1 Kazakhstan      1933                 4.07
##  2 Kazakhstan      1932                 8.15
##  3 Ukraine         1933                 8.94
##  4 Rwanda          1994                 9.64
##  5 Pakistan        1947                11.1 
##  6 Kyrgyz Republic 1921                11.9 
##  7 Lithuania       1941                12   
##  8 Belarus         1943                13.9 
##  9 Kyrgyz Republic 1922                13.9 
## 10 Turkmenistan    1933                14.2 
## # ... with 18,718 more rows
```
…
4. (3 points) Although we can see which country has the highest life expectancy for the past 100 years, we don't know which countries have changed the most. What are the top 5 countries that have experienced the biggest improvement in life expectancy between 1920-2020? 

```r
le_century_growth<- le_century%>%
  group_by(country) %>%
  summarise(max_le=max(avg_life_expectancy), min_le=min(avg_life_expectancy), 
            le_growth= max_le-min_le) %>%
  arrange(desc(le_growth))
le_century_growth
```

```
## # A tibble: 187 x 4
##    country         max_le min_le le_growth
##    <chr>            <dbl>  <dbl>     <dbl>
##  1 Kazakhstan        73.1   4.07      69.0
##  2 Lithuania         75.6  12         63.6
##  3 Poland            78.5  15.4       63.1
##  4 Ukraine           71.8   8.94      62.9
##  5 Kyrgyz Republic   73.1  11.9       61.2
##  6 Belarus           74.6  13.9       60.7
##  7 Rwanda            69.5   9.64      59.9
##  8 Vietnam           74.8  15.9       58.9
##  9 Kuwait            83.4  26.6       56.8
## 10 Russia            72.7  16         56.7
## # ... with 177 more rows
```
…
## Population Growth
6. (3 points) Which 5 countries have had the highest population growth over the past 100 years (1920-2020)?  

```r
poptol_century <- poptol_t2 %>%
  filter(year>="1920" & year<="2020") %>%
  arrange(desc(total_population))
poptol_century
```

```
## # A tibble: 19,695 x 3
##    country year  total_population
##    <chr>   <chr>            <int>
##  1 China   2020        1440000000
##  2 China   2018        1430000000
##  3 China   2019        1430000000
##  4 China   2017        1420000000
##  5 China   2015        1410000000
##  6 China   2016        1410000000
##  7 China   2014        1400000000
##  8 China   2013        1390000000
##  9 China   2011        1380000000
## 10 China   2012        1380000000
## # ... with 19,685 more rows
```
…
```r
ipp_century <-ipp_t2 %>%
   filter(year>="1920" & year<="2020") %>%
  arrange(desc(income))
```


```r
gapminder_join <- inner_join(le_century, poptol_century, by= c("country", "year"))
gapminder_join <- inner_join(gapminder_join, ipp_century, by= c("country", "year"))
gapminder_join
```

```
## # A tibble: 18,728 x 5
##    country         year  avg_life_expectancy total_population income
##    <chr>           <chr>               <dbl>            <int>  <int>
##  1 Kazakhstan      1933                 4.07          5630000   3130
##  2 Kazakhstan      1932                 8.15          5580000   3010
##  3 Ukraine         1933                 8.94         31800000   2070
##  4 Rwanda          1994                 9.64          5940000    503
##  5 Pakistan        1947                11.1          35400000   1280
##  6 Kyrgyz Republic 1921                11.9           1320000   1330
##  7 Lithuania       1941                12             2460000   4870
##  8 Belarus         1943                13.9           7280000   2040
##  9 Kyrgyz Republic 1922                13.9           1340000   1360
## 10 Turkmenistan    1933                14.2           1030000   2590
## # ... with 18,718 more rows
```
…
