…
```r
gapminder <-clean_names(gapminder)
```


**2. Among the interesting variables in gapminder is life expectancy. How has global life expectancy changed between 1952 and 2007?**

```r
gminder_1952 <- gapminder %>%
  filter(between(year, 1952, 2007))
gminder_1952
```

```
## # A tibble: 1,704 x 6
##    country     continent  year life_exp      pop gdp_percap
##    <fct>       <fct>     <int>    <dbl>    <int>      <dbl>
##  1 Afghanistan Asia       1952     28.8  8425333       779.
##  2 Afghanistan Asia       1957     30.3  9240934       821.
##  3 Afghanistan Asia       1962     32.0 10267083       853.
##  4 Afghanistan Asia       1967     34.0 11537966       836.
##  5 Afghanistan Asia       1972     36.1 13079460       740.
##  6 Afghanistan Asia       1977     38.4 14880372       786.
##  7 Afghanistan Asia       1982     39.9 12881816       978.
##  8 Afghanistan Asia       1987     40.8 13867957       852.
##  9 Afghanistan Asia       1992     41.7 16317921       649.
## 10 Afghanistan Asia       1997     41.8 22227415       635.
## # ... with 1,694 more rows
```


```r
gminder_1952 %>%
  group_by(country) %>%
  summarise(life_exp_growth = max(life_exp)- min(life_exp)) %>%
  arrange(desc(life_exp_growth))
```

```
## # A tibble: 142 x 2
##    country            life_exp_growth
##    <fct>                        <dbl>
##  1 Oman                          38.1
##  2 Vietnam                       33.8
##  3 Indonesia                     33.2
##  4 Saudi Arabia                  32.9
##  5 Libya                         31.2
##  6 Korea, Rep.                   31.2
##  7 Nicaragua                     30.6
##  8 West Bank and Gaza            30.3
##  9 Yemen, Rep.                   30.2
## 10 Gambia                        29.4
## # ... with 132 more rows
```
…
```
## `summarise()` has grouped output by 'continent'. You can override using the
## `.groups` argument.
```

```r
a
```

```
## # A tibble: 60 x 5
## # Groups:   continent [5]
##    continent  year min_life_exp mean_life_exp max_life_exp
##    <fct>     <int>        <dbl>         <dbl>        <dbl>
##  1 Africa     1952         30            39.1         52.7
##  2 Africa     1957         31.6          41.3         58.1
##  3 Africa     1962         32.8          43.3         60.2
##  4 Africa     1967         34.1          45.3         61.6
##  5 Africa     1972         35.4          47.5         64.3
##  6 Africa     1977         36.8          49.6         67.1
##  7 Africa     1982         38.4          51.6         69.9
##  8 Africa     1987         39.9          53.3         71.9
##  9 Africa     1992         23.6          53.6         73.6
## 10 Africa     1997         36.1          53.6         74.8
## # ... with 50 more rows
```
**5. How has life expectancy changed between 1952-2007 for each continent?**

```r
a %>%
  group_by(continent, year) %>%
  summarise( life_exp_change = max_life_exp - min_life_exp)
```

```
## `summarise()` has grouped output by 'continent'. You can override using the
## `.groups` argument.
```

```
## # A tibble: 60 x 3
## # Groups:   continent [5]
##    continent  year life_exp_change
##    <fct>     <int>           <dbl>
##  1 Africa     1952            22.7
##  2 Africa     1957            26.5
##  3 Africa     1962            27.5
##  4 Africa     1967            27.4
##  5 Africa     1972            28.9
##  6 Africa     1977            30.3
##  7 Africa     1982            31.4
##  8 Africa     1987            32.0
##  9 Africa     1992            50.0
## 10 Africa     1997            38.7
## # ... with 50 more rows
```
…
**7. Which countries have had the largest population growth since 1952?**

```r
b <- gminder_1952 %>%
  group_by(country) %>%
  summarise( life_exp_change = max(life_exp) - min(life_exp)) %>%
  arrange(desc(life_exp_change))
b
```

```
## # A tibble: 142 x 2
##    country            life_exp_change
##    <fct>                        <dbl>
##  1 Oman                          38.1
##  2 Vietnam                       33.8
##  3 Indonesia                     33.2
##  4 Saudi Arabia                  32.9
##  5 Libya                         31.2
##  6 Korea, Rep.                   31.2
##  7 Nicaragua                     30.6
##  8 West Bank and Gaza            30.3
##  9 Yemen, Rep.                   30.2
## 10 Gambia                        29.4
## # ... with 132 more rows
```
…
