…
2. How many genera and species are represented in the data? What are the total number of observations? Which species is most/ least frequently sampled in the study?

```r
deserts %>%
  count(genus, species)
```

```
## # A tibble: 48 x 3
##    genus            species             n
##    <chr>            <chr>           <int>
##  1 Ammodramus       savannarum          2
##  2 Ammospermophilus harrisi           437
##  3 Amphispiza       bilineata         303
##  4 Baiomys          taylori            46
##  5 Calamospiza      melanocorys        13
##  6 Callipepla       squamata           16
##  7 Campylorhynchus  brunneicapillus    50
##  8 Chaetodipus      baileyi          2891
##  9 Chaetodipus      intermedius         9
## 10 Chaetodipus      penicillatus     3123
## # ... with 38 more rows
```
…
7. [Dipodomys merriami](https://en.wikipedia.org/wiki/Merriam's_kangaroo_rat) is the most frequently sampled animal in the study. How have the number of observations of this species changed over the years included in the study?

```r
deserts %>%
  count(species,year) %>%
  filter(species=="merriami") %>%
  arrange(year)
```

```
## # A tibble: 26 x 3
##    species   year     n
##    <chr>    <dbl> <int>
##  1 merriami  1977   264
##  2 merriami  1978   389
##  3 merriami  1979   209
##  4 merriami  1980   493
##  5 merriami  1981   559
##  6 merriami  1982   609
##  7 merriami  1983   528
##  8 merriami  1984   396
##  9 merriami  1985   667
## 10 merriami  1986   406
## # ... with 16 more rows
```

8. What is the relationship between `weight` and `hindfoot` length? Consider whether or not over plotting is an issue.

```r
deserts %>%
  summarise(weight, hindfoot_length) %>%
  filter(weight!="NA" & hindfoot_length!="NA")
```

```
## # A tibble: 30,738 x 2
##    weight hindfoot_length
##     <dbl>           <dbl>
##  1     40              35
##  2     48              37
##  3     29              34
##  4     46              35
##  5     36              35
##  6     52              32
##  7      8              15
##  8     22              21
##  9     35              36
## 10      7              12
## # ... with 30,728 more rows
```
…
